id,name,model_id:id,group_id:id,perm_read,perm_write,perm_create,perm_unlink
access_hr_type_attribution_holidays,hr.type.attribution.holidays,model_hr_type_attribution_holidays,base.group_hr_manager,1,1,1,1
access_hr_days,hr.days,model_hr_days,base.group_hr_manager,1,1,1,1
access_hr_holidays_days,hr.holidays.days,model_hr_holidays_days,base.group_hr_manager,1,1,1,1
access_resource_calendar,resource.calendar,model_resource_calendar,base.group_hr_manager,1,1,1,1
access_resource_calendar_attendance,resource.calendar.attendance,resource.model_resource_calendar_attendance,base.group_hr_manager,1,1,1,1
