id,name,model_id:id,group_id:id,perm_read,perm_write,perm_create,perm_unlink
access_hr_payslip,hr.payslip,model_hr_payslip,base.group_user,1,1,1,1
access_hr_salary_rule_group,hr.salary.rule.group,model_hr_salary_rule_group,base.group_user,1,1,1,1
